{
    "spec": {
        "_category": "interactive",
        "_tasks": [
            {
                "_fw_name": "PyTask",
                "func": "parallel_data_jupyter_EMBEDDED_dask.main",
                "kwargs": {
                    "pool": "local_threads",
                    "threads_number": "10"
                }
            }
        ],
        "_fworker": "bwu"
    },
    "fw_id": 65557,
    "created_on": "2023-02-20T15:55:50.212354",
    "updated_on": "2023-02-21T09:47:55.775883",
    "launches": [
        {
            "fworker": {
                "name": null,
                "category": [
                    "interactive",
                    "remote"
                ],
                "query": "{}",
                "env": {}
            },
            "fw_id": 65557,
            "launch_dir": "/home/mehdi/wfgenes/intro_examples/rgg/lib",
            "host": "SCC-th7356-01",
            "ip": "127.0.1.1",
            "trackers": [],
            "action": null,
            "state": "RUNNING",
            "state_history": [
                {
                    "state": "RUNNING",
                    "created_on": "2023-02-21T09:47:55.773397",
                    "updated_on": "2023-02-21T09:47:55.773400"
                }
            ],
            "launch_id": 7977
        }
    ],
    "archived_launches": [
        {
            "fworker": {
                "name": "bwu",
                "category": "batch",
                "query": "{}",
                "env": {}
            },
            "fw_id": 65557,
            "launch_dir": "/pfs/data5/home/kit/scc/th7356/work/gitlab/vre-middleware/notebooks/launcher_2023-02-20-15-56-48-261064",
            "host": "uc2n368.localdomain",
            "ip": "10.0.1.112",
            "trackers": [],
            "action": null,
            "state": "RESERVED",
            "state_history": [
                {
                    "state": "RESERVED",
                    "created_on": "2023-02-20T15:56:48.249936",
                    "updated_on": "2023-02-20T15:56:48.249939",
                    "reservation_id": "21819449"
                }
            ],
            "launch_id": 7947
        },
        {
            "fworker": {
                "name": "bwu",
                "category": "batch",
                "query": "{}",
                "env": {}
            },
            "fw_id": 65557,
            "launch_dir": "/pfs/data5/home/kit/scc/th7356/work/gitlab/vre-middleware/notebooks/launcher_2023-02-20-16-04-52-370948",
            "host": "uc2n368.localdomain",
            "ip": "10.0.1.112",
            "trackers": [],
            "action": null,
            "state": "RESERVED",
            "state_history": [
                {
                    "state": "RESERVED",
                    "created_on": "2023-02-20T16:04:52.361700",
                    "updated_on": "2023-02-20T16:04:52.361704",
                    "reservation_id": "21819552"
                }
            ],
            "launch_id": 7948
        },
        {
            "fworker": {
                "name": "bwu",
                "category": "batch",
                "query": "{}",
                "env": {}
            },
            "fw_id": 65557,
            "launch_dir": "/pfs/data5/home/kit/scc/th7356/work/gitlab/vre-middleware/notebooks/launcher_2023-02-20-16-09-22-658642",
            "host": "uc2n368.localdomain",
            "ip": "10.0.1.112",
            "trackers": [],
            "action": null,
            "state": "RESERVED",
            "state_history": [
                {
                    "state": "RESERVED",
                    "created_on": "2023-02-20T16:09:22.648117",
                    "updated_on": "2023-02-20T16:09:22.648119",
                    "reservation_id": "21819598"
                }
            ],
            "launch_id": 7949
        },
        {
            "fworker": {
                "name": "bwu",
                "category": "interactive",
                "query": "{}",
                "env": {}
            },
            "fw_id": 65557,
            "launch_dir": "/pfs/data5/home/kit/scc/th7356/coupling_test/launcher_2023-02-20-16-19-37-797820",
            "host": "uc2n368.localdomain",
            "ip": "10.0.1.112",
            "trackers": [],
            "action": {
                "stored_data": {
                    "_message": "runtime error during task",
                    "_task": {
                        "_fw_name": "PyTask",
                        "func": "parallel_data_jupyter_EMBEDDED_dask.main",
                        "kwargs": {
                            "pool": "local_threads",
                            "threads_number": "10"
                        }
                    },
                    "_exception": {
                        "_stacktrace": "Traceback (most recent call last):\n  File \"/home/kit/scc/th7356/software/anaconda3/envs/demo_env/lib/python3.10/site-packages/fireworks/core/rocket.py\", line 261, in run\n    m_action = t.run_task(my_spec)\n  File \"/home/kit/scc/th7356/software/anaconda3/envs/demo_env/lib/python3.10/site-packages/fireworks/user_objects/firetasks/script_task.py\", line 170, in run_task\n    mod = __import__(modname, globals(), locals(), [str(funcname)], 0)\nModuleNotFoundError: No module named 'parallel_data_jupyter_EMBEDDED_dask'\n",
                        "_details": null
                    }
                },
                "exit": true,
                "update_spec": {},
                "mod_spec": [],
                "additions": [],
                "detours": [],
                "defuse_children": false,
                "defuse_workflow": false,
                "propagate": false
            },
            "state": "FIZZLED",
            "state_history": [
                {
                    "state": "RUNNING",
                    "created_on": "2023-02-20T16:19:37.824274",
                    "updated_on": "2023-02-20T16:19:38.217971",
                    "checkpoint": {
                        "_task_n": 0,
                        "_all_stored_data": {},
                        "_all_update_spec": {},
                        "_all_mod_spec": []
                    }
                },
                {
                    "state": "FIZZLED",
                    "created_on": "2023-02-20T16:19:38.220336",
                    "checkpoint": {
                        "_task_n": 0,
                        "_all_stored_data": {},
                        "_all_update_spec": {},
                        "_all_mod_spec": []
                    }
                }
            ],
            "launch_id": 7950
        },
        {
            "fworker": {
                "name": "bwu",
                "category": "interactive",
                "query": "{}",
                "env": {}
            },
            "fw_id": 65557,
            "launch_dir": "/pfs/data5/home/kit/scc/th7356/coupling_test/launcher_2023-02-20-16-22-08-397182",
            "host": "uc2n368.localdomain",
            "ip": "10.0.1.112",
            "trackers": [],
            "action": {
                "stored_data": {
                    "_message": "runtime error during task",
                    "_task": {
                        "_fw_name": "PyTask",
                        "func": "parallel_data_jupyter_EMBEDDED_dask.main",
                        "kwargs": {
                            "pool": "local_threads",
                            "threads_number": "10"
                        }
                    },
                    "_exception": {
                        "_stacktrace": "Traceback (most recent call last):\n  File \"/home/kit/scc/th7356/software/anaconda3/envs/demo_env/lib/python3.10/site-packages/fireworks/core/rocket.py\", line 261, in run\n    m_action = t.run_task(my_spec)\n  File \"/home/kit/scc/th7356/software/anaconda3/envs/demo_env/lib/python3.10/site-packages/fireworks/user_objects/firetasks/script_task.py\", line 170, in run_task\n    mod = __import__(modname, globals(), locals(), [str(funcname)], 0)\nModuleNotFoundError: No module named 'parallel_data_jupyter_EMBEDDED_dask'\n",
                        "_details": null
                    }
                },
                "exit": true,
                "update_spec": {},
                "mod_spec": [],
                "additions": [],
                "detours": [],
                "defuse_children": false,
                "defuse_workflow": false,
                "propagate": false
            },
            "state": "FIZZLED",
            "state_history": [
                {
                    "state": "RUNNING",
                    "created_on": "2023-02-20T16:22:08.419080",
                    "updated_on": "2023-02-20T16:22:08.436518",
                    "checkpoint": {
                        "_task_n": 0,
                        "_all_stored_data": {},
                        "_all_update_spec": {},
                        "_all_mod_spec": []
                    }
                },
                {
                    "state": "FIZZLED",
                    "created_on": "2023-02-20T16:22:08.438096",
                    "checkpoint": {
                        "_task_n": 0,
                        "_all_stored_data": {},
                        "_all_update_spec": {},
                        "_all_mod_spec": []
                    }
                }
            ],
            "launch_id": 7951
        },
        {
            "fworker": {
                "name": "bwu",
                "category": "interactive",
                "query": "{}",
                "env": {}
            },
            "fw_id": 65557,
            "launch_dir": "/pfs/data5/home/kit/scc/th7356/coupling_test/launcher_2023-02-20-16-22-38-516746",
            "host": "uc2n368.localdomain",
            "ip": "10.0.1.112",
            "trackers": [],
            "action": {
                "stored_data": {
                    "_message": "runtime error during task",
                    "_task": {
                        "_fw_name": "PyTask",
                        "func": "parallel_data_jupyter_EMBEDDED_dask.main",
                        "kwargs": {
                            "pool": "local_threads",
                            "threads_number": "10"
                        }
                    },
                    "_exception": {
                        "_stacktrace": "Traceback (most recent call last):\n  File \"/home/kit/scc/th7356/software/anaconda3/envs/demo_env/lib/python3.10/site-packages/fireworks/core/rocket.py\", line 261, in run\n    m_action = t.run_task(my_spec)\n  File \"/home/kit/scc/th7356/software/anaconda3/envs/demo_env/lib/python3.10/site-packages/fireworks/user_objects/firetasks/script_task.py\", line 170, in run_task\n    mod = __import__(modname, globals(), locals(), [str(funcname)], 0)\nModuleNotFoundError: No module named 'parallel_data_jupyter_EMBEDDED_dask'\n",
                        "_details": null
                    }
                },
                "exit": true,
                "update_spec": {},
                "mod_spec": [],
                "additions": [],
                "detours": [],
                "defuse_children": false,
                "defuse_workflow": false,
                "propagate": false
            },
            "state": "FIZZLED",
            "state_history": [
                {
                    "state": "RUNNING",
                    "created_on": "2023-02-20T16:22:38.627163",
                    "updated_on": "2023-02-20T16:22:38.649096",
                    "checkpoint": {
                        "_task_n": 0,
                        "_all_stored_data": {},
                        "_all_update_spec": {},
                        "_all_mod_spec": []
                    }
                },
                {
                    "state": "FIZZLED",
                    "created_on": "2023-02-20T16:22:38.651231",
                    "checkpoint": {
                        "_task_n": 0,
                        "_all_stored_data": {},
                        "_all_update_spec": {},
                        "_all_mod_spec": []
                    }
                }
            ],
            "launch_id": 7952
        },
        {
            "fworker": {
                "name": "bwu",
                "category": "interactive",
                "query": "{}",
                "env": {}
            },
            "fw_id": 65557,
            "launch_dir": "/pfs/data5/home/kit/scc/th7356/coupling_test/launcher_2023-02-20-16-23-38-778308",
            "host": "uc2n368.localdomain",
            "ip": "10.0.1.112",
            "trackers": [],
            "action": {
                "stored_data": {
                    "_message": "runtime error during task",
                    "_task": {
                        "_fw_name": "PyTask",
                        "func": "parallel_data_jupyter_EMBEDDED_dask.main",
                        "kwargs": {
                            "pool": "local_threads",
                            "threads_number": "10"
                        }
                    },
                    "_exception": {
                        "_stacktrace": "Traceback (most recent call last):\n  File \"/home/kit/scc/th7356/software/anaconda3/envs/demo_env/lib/python3.10/site-packages/fireworks/core/rocket.py\", line 261, in run\n    m_action = t.run_task(my_spec)\n  File \"/home/kit/scc/th7356/software/anaconda3/envs/demo_env/lib/python3.10/site-packages/fireworks/user_objects/firetasks/script_task.py\", line 170, in run_task\n    mod = __import__(modname, globals(), locals(), [str(funcname)], 0)\nModuleNotFoundError: No module named 'parallel_data_jupyter_EMBEDDED_dask'\n",
                        "_details": null
                    }
                },
                "exit": true,
                "update_spec": {},
                "mod_spec": [],
                "additions": [],
                "detours": [],
                "defuse_children": false,
                "defuse_workflow": false,
                "propagate": false
            },
            "state": "FIZZLED",
            "state_history": [
                {
                    "state": "RUNNING",
                    "created_on": "2023-02-20T16:23:38.826705",
                    "updated_on": "2023-02-20T16:23:38.971655",
                    "checkpoint": {
                        "_task_n": 0,
                        "_all_stored_data": {},
                        "_all_update_spec": {},
                        "_all_mod_spec": []
                    }
                },
                {
                    "state": "FIZZLED",
                    "created_on": "2023-02-20T16:23:38.973512",
                    "checkpoint": {
                        "_task_n": 0,
                        "_all_stored_data": {},
                        "_all_update_spec": {},
                        "_all_mod_spec": []
                    }
                }
            ],
            "launch_id": 7953
        },
        {
            "fworker": {
                "name": "bwu",
                "category": "interactive",
                "query": "{}",
                "env": {}
            },
            "fw_id": 65557,
            "launch_dir": "/pfs/data5/home/kit/scc/th7356/coupling_test/launcher_2023-02-20-16-24-09-018105",
            "host": "uc2n368.localdomain",
            "ip": "10.0.1.112",
            "trackers": [],
            "action": {
                "stored_data": {
                    "_message": "runtime error during task",
                    "_task": {
                        "_fw_name": "PyTask",
                        "func": "parallel_data_jupyter_EMBEDDED_dask.main",
                        "kwargs": {
                            "pool": "local_threads",
                            "threads_number": "10"
                        }
                    },
                    "_exception": {
                        "_stacktrace": "Traceback (most recent call last):\n  File \"/home/kit/scc/th7356/software/anaconda3/envs/demo_env/lib/python3.10/site-packages/fireworks/core/rocket.py\", line 261, in run\n    m_action = t.run_task(my_spec)\n  File \"/home/kit/scc/th7356/software/anaconda3/envs/demo_env/lib/python3.10/site-packages/fireworks/user_objects/firetasks/script_task.py\", line 170, in run_task\n    mod = __import__(modname, globals(), locals(), [str(funcname)], 0)\nModuleNotFoundError: No module named 'parallel_data_jupyter_EMBEDDED_dask'\n",
                        "_details": null
                    }
                },
                "exit": true,
                "update_spec": {},
                "mod_spec": [],
                "additions": [],
                "detours": [],
                "defuse_children": false,
                "defuse_workflow": false,
                "propagate": false
            },
            "state": "FIZZLED",
            "state_history": [
                {
                    "state": "RUNNING",
                    "created_on": "2023-02-20T16:24:09.028107",
                    "updated_on": "2023-02-20T16:24:09.049228",
                    "checkpoint": {
                        "_task_n": 0,
                        "_all_stored_data": {},
                        "_all_update_spec": {},
                        "_all_mod_spec": []
                    }
                },
                {
                    "state": "FIZZLED",
                    "created_on": "2023-02-20T16:24:09.051538",
                    "checkpoint": {
                        "_task_n": 0,
                        "_all_stored_data": {},
                        "_all_update_spec": {},
                        "_all_mod_spec": []
                    }
                }
            ],
            "launch_id": 7954
        },
        {
            "fworker": {
                "name": "bwu",
                "category": "interactive",
                "query": "{}",
                "env": {}
            },
            "fw_id": 65557,
            "launch_dir": "/pfs/data5/home/kit/scc/th7356/coupling_test/launcher_2023-02-20-16-24-39-153982",
            "host": "uc2n368.localdomain",
            "ip": "10.0.1.112",
            "trackers": [],
            "action": {
                "stored_data": {
                    "_message": "runtime error during task",
                    "_task": {
                        "_fw_name": "PyTask",
                        "func": "parallel_data_jupyter_EMBEDDED_dask.main",
                        "kwargs": {
                            "pool": "local_threads",
                            "threads_number": "10"
                        }
                    },
                    "_exception": {
                        "_stacktrace": "Traceback (most recent call last):\n  File \"/home/kit/scc/th7356/software/anaconda3/envs/demo_env/lib/python3.10/site-packages/fireworks/core/rocket.py\", line 261, in run\n    m_action = t.run_task(my_spec)\n  File \"/home/kit/scc/th7356/software/anaconda3/envs/demo_env/lib/python3.10/site-packages/fireworks/user_objects/firetasks/script_task.py\", line 170, in run_task\n    mod = __import__(modname, globals(), locals(), [str(funcname)], 0)\nModuleNotFoundError: No module named 'parallel_data_jupyter_EMBEDDED_dask'\n",
                        "_details": null
                    }
                },
                "exit": true,
                "update_spec": {},
                "mod_spec": [],
                "additions": [],
                "detours": [],
                "defuse_children": false,
                "defuse_workflow": false,
                "propagate": false
            },
            "state": "FIZZLED",
            "state_history": [
                {
                    "state": "RUNNING",
                    "created_on": "2023-02-20T16:24:39.183463",
                    "updated_on": "2023-02-20T16:24:39.203984",
                    "checkpoint": {
                        "_task_n": 0,
                        "_all_stored_data": {},
                        "_all_update_spec": {},
                        "_all_mod_spec": []
                    }
                },
                {
                    "state": "FIZZLED",
                    "created_on": "2023-02-20T16:24:39.206039",
                    "checkpoint": {
                        "_task_n": 0,
                        "_all_stored_data": {},
                        "_all_update_spec": {},
                        "_all_mod_spec": []
                    }
                }
            ],
            "launch_id": 7955
        },
        {
            "fworker": {
                "name": "bwu",
                "category": "interactive",
                "query": "{}",
                "env": {}
            },
            "fw_id": 65557,
            "launch_dir": "/pfs/data5/home/kit/scc/th7356/coupling_test/launcher_2023-02-20-16-27-40-812644",
            "host": "uc2n368.localdomain",
            "ip": "10.0.1.112",
            "trackers": [],
            "action": {
                "stored_data": {
                    "_message": "runtime error during task",
                    "_task": {
                        "_fw_name": "PyTask",
                        "func": "parallel_data_jupyter_EMBEDDED_dask.main",
                        "kwargs": {
                            "pool": "local_threads",
                            "threads_number": "10"
                        }
                    },
                    "_exception": {
                        "_stacktrace": "Traceback (most recent call last):\n  File \"/home/kit/scc/th7356/software/anaconda3/envs/demo_env/lib/python3.10/site-packages/fireworks/core/rocket.py\", line 261, in run\n    m_action = t.run_task(my_spec)\n  File \"/home/kit/scc/th7356/software/anaconda3/envs/demo_env/lib/python3.10/site-packages/fireworks/user_objects/firetasks/script_task.py\", line 170, in run_task\n    mod = __import__(modname, globals(), locals(), [str(funcname)], 0)\nModuleNotFoundError: No module named 'parallel_data_jupyter_EMBEDDED_dask'\n",
                        "_details": null
                    }
                },
                "exit": true,
                "update_spec": {},
                "mod_spec": [],
                "additions": [],
                "detours": [],
                "defuse_children": false,
                "defuse_workflow": false,
                "propagate": false
            },
            "state": "FIZZLED",
            "state_history": [
                {
                    "state": "RUNNING",
                    "created_on": "2023-02-20T16:27:40.850540",
                    "updated_on": "2023-02-20T16:27:40.909889"
                },
                {
                    "state": "FIZZLED",
                    "created_on": "2023-02-20T16:27:40.912036"
                }
            ],
            "launch_id": 7956
        },
        {
            "fworker": {
                "name": null,
                "category": [
                    "interactive"
                ],
                "query": "{}",
                "env": {}
            },
            "fw_id": 65557,
            "launch_dir": "/pfs/data5/home/kit/scc/th7356/coupling_test/launcher_2023-02-20-16-19-37-797820",
            "host": "uc2n368.localdomain",
            "ip": "10.0.1.112",
            "trackers": [],
            "action": {
                "stored_data": {
                    "_message": "runtime error during task",
                    "_task": {
                        "_fw_name": "PyTask",
                        "func": "parallel_data_jupyter_EMBEDDED_dask.main",
                        "kwargs": {
                            "pool": "local_threads",
                            "threads_number": "10"
                        }
                    },
                    "_exception": {
                        "_stacktrace": "Traceback (most recent call last):\n  File \"/home/kit/scc/th7356/software/anaconda3/envs/wfgenes/lib/python3.10/site-packages/fireworks/core/rocket.py\", line 261, in run\n    m_action = t.run_task(my_spec)\n  File \"/home/kit/scc/th7356/software/anaconda3/envs/wfgenes/lib/python3.10/site-packages/fireworks/user_objects/firetasks/script_task.py\", line 170, in run_task\n    mod = __import__(modname, globals(), locals(), [str(funcname)], 0)\nModuleNotFoundError: No module named 'parallel_data_jupyter_EMBEDDED_dask'\n",
                        "_details": null
                    }
                },
                "exit": true,
                "update_spec": {},
                "mod_spec": [],
                "additions": [],
                "detours": [],
                "defuse_children": false,
                "defuse_workflow": false,
                "propagate": false
            },
            "state": "FIZZLED",
            "state_history": [
                {
                    "state": "RUNNING",
                    "created_on": "2023-02-20T16:29:07.570395",
                    "updated_on": "2023-02-20T16:29:07.613180",
                    "checkpoint": {
                        "_task_n": 0,
                        "_all_stored_data": {},
                        "_all_update_spec": {},
                        "_all_mod_spec": []
                    }
                },
                {
                    "state": "FIZZLED",
                    "created_on": "2023-02-20T16:29:07.617280",
                    "checkpoint": {
                        "_task_n": 0,
                        "_all_stored_data": {},
                        "_all_update_spec": {},
                        "_all_mod_spec": []
                    }
                }
            ],
            "launch_id": 7957
        },
        {
            "fworker": {
                "name": null,
                "category": [
                    "interactive"
                ],
                "query": "{}",
                "env": {}
            },
            "fw_id": 65557,
            "launch_dir": "/pfs/data5/home/kit/scc/th7356/coupling_test/launcher_2023-02-20-16-19-37-797820",
            "host": "uc2n368.localdomain",
            "ip": "10.0.1.112",
            "trackers": [],
            "action": {
                "stored_data": {
                    "_message": "runtime error during task",
                    "_task": {
                        "_fw_name": "PyTask",
                        "func": "parallel_data_jupyter_EMBEDDED_dask.main",
                        "kwargs": {
                            "pool": "local_threads",
                            "threads_number": "10"
                        }
                    },
                    "_exception": {
                        "_stacktrace": "Traceback (most recent call last):\n  File \"/home/kit/scc/th7356/software/anaconda3/envs/wfgenes/lib/python3.10/site-packages/fireworks/core/rocket.py\", line 261, in run\n    m_action = t.run_task(my_spec)\n  File \"/home/kit/scc/th7356/software/anaconda3/envs/wfgenes/lib/python3.10/site-packages/fireworks/user_objects/firetasks/script_task.py\", line 192, in run_task\n    output = func(*args, **kwargs)\n  File \"/pfs/data5/home/kit/scc/th7356/wfgenes/intro_examples/foreach_sample/wfGenes_output/parallel_data_jupyter_EMBEDDED/Dask/parallel_data_jupyter_EMBEDDED_dask.py\", line 37, in main\n    yaml_stream = open('constant_y.yaml', 'r')\nFileNotFoundError: [Errno 2] No such file or directory: 'constant_y.yaml'\n",
                        "_details": null
                    }
                },
                "exit": true,
                "update_spec": {},
                "mod_spec": [],
                "additions": [],
                "detours": [],
                "defuse_children": false,
                "defuse_workflow": false,
                "propagate": false
            },
            "state": "FIZZLED",
            "state_history": [
                {
                    "state": "RUNNING",
                    "created_on": "2023-02-20T16:30:29.340797",
                    "updated_on": "2023-02-20T16:30:36.360442",
                    "checkpoint": {
                        "_task_n": 0,
                        "_all_stored_data": {},
                        "_all_update_spec": {},
                        "_all_mod_spec": []
                    }
                },
                {
                    "state": "FIZZLED",
                    "created_on": "2023-02-20T16:30:36.362714",
                    "checkpoint": {
                        "_task_n": 0,
                        "_all_stored_data": {},
                        "_all_update_spec": {},
                        "_all_mod_spec": []
                    }
                }
            ],
            "launch_id": 7958
        },
        {
            "fworker": {
                "name": null,
                "category": [
                    "interactive"
                ],
                "query": "{}",
                "env": {}
            },
            "fw_id": 65557,
            "launch_dir": "/pfs/data5/home/kit/scc/th7356/wfgenes/intro_examples/foreach_sample/inputs",
            "host": "uc2n368.localdomain",
            "ip": "10.0.1.112",
            "trackers": [],
            "action": {
                "stored_data": {},
                "exit": false,
                "update_spec": {},
                "mod_spec": [],
                "additions": [],
                "detours": [],
                "defuse_children": false,
                "defuse_workflow": false,
                "propagate": false
            },
            "state": "COMPLETED",
            "state_history": [
                {
                    "state": "RUNNING",
                    "created_on": "2023-02-20T16:36:32.838118",
                    "updated_on": "2023-02-20T16:36:59.737433",
                    "checkpoint": {
                        "_task_n": 0,
                        "_all_stored_data": {},
                        "_all_update_spec": {},
                        "_all_mod_spec": []
                    }
                },
                {
                    "state": "COMPLETED",
                    "created_on": "2023-02-20T16:36:59.739667"
                }
            ],
            "launch_id": 7959
        },
        {
            "fworker": {
                "name": null,
                "category": [
                    "interactive"
                ],
                "query": "{}",
                "env": {}
            },
            "fw_id": 65557,
            "launch_dir": "/pfs/data5/home/kit/scc/th7356/wfgenes/intro_examples/foreach_sample/inputs",
            "host": "uc2n368.localdomain",
            "ip": "10.0.1.112",
            "trackers": [],
            "action": {
                "stored_data": {},
                "exit": false,
                "update_spec": {},
                "mod_spec": [],
                "additions": [],
                "detours": [],
                "defuse_children": false,
                "defuse_workflow": false,
                "propagate": false
            },
            "state": "COMPLETED",
            "state_history": [
                {
                    "state": "RUNNING",
                    "created_on": "2023-02-20T16:44:50.331954",
                    "updated_on": "2023-02-20T16:45:15.929022",
                    "checkpoint": {
                        "_task_n": 0,
                        "_all_stored_data": {},
                        "_all_update_spec": {},
                        "_all_mod_spec": []
                    }
                },
                {
                    "state": "COMPLETED",
                    "created_on": "2023-02-20T16:45:15.932108"
                }
            ],
            "launch_id": 7961
        },
        {
            "fworker": {
                "name": null,
                "category": [
                    "interactive"
                ],
                "query": "{}",
                "env": {}
            },
            "fw_id": 65557,
            "launch_dir": "/pfs/data5/home/kit/scc/th7356",
            "host": "uc2n368.localdomain",
            "ip": "10.0.1.112",
            "trackers": [],
            "action": {
                "stored_data": {
                    "_message": "runtime error during task",
                    "_task": {
                        "_fw_name": "PyTask",
                        "func": "parallel_data_jupyter_EMBEDDED_dask.main",
                        "kwargs": {
                            "pool": "local_threads",
                            "threads_number": "10"
                        }
                    },
                    "_exception": {
                        "_stacktrace": "Traceback (most recent call last):\n  File \"/home/kit/scc/th7356/.local/lib/python3.8/site-packages/fireworks/core/rocket.py\", line 261, in run\n    m_action = t.run_task(my_spec)\n  File \"/home/kit/scc/th7356/.local/lib/python3.8/site-packages/fireworks/user_objects/firetasks/script_task.py\", line 170, in run_task\n    mod = __import__(modname, globals(), locals(), [str(funcname)], 0)\nModuleNotFoundError: No module named 'parallel_data_jupyter_EMBEDDED_dask'\n",
                        "_details": null
                    }
                },
                "exit": true,
                "update_spec": {},
                "mod_spec": [],
                "additions": [],
                "detours": [],
                "defuse_children": false,
                "defuse_workflow": false,
                "propagate": false
            },
            "state": "FIZZLED",
            "state_history": [
                {
                    "state": "RUNNING",
                    "created_on": "2023-02-21T09:09:38.052247",
                    "updated_on": "2023-02-21T09:09:38.090220",
                    "checkpoint": {
                        "_task_n": 0,
                        "_all_stored_data": {},
                        "_all_update_spec": {},
                        "_all_mod_spec": []
                    }
                },
                {
                    "state": "FIZZLED",
                    "created_on": "2023-02-21T09:09:38.092629",
                    "checkpoint": {
                        "_task_n": 0,
                        "_all_stored_data": {},
                        "_all_update_spec": {},
                        "_all_mod_spec": []
                    }
                }
            ],
            "launch_id": 7963
        },
        {
            "fworker": {
                "name": null,
                "category": [
                    "interactive"
                ],
                "query": "{}",
                "env": {}
            },
            "fw_id": 65557,
            "launch_dir": "/pfs/data5/home/kit/scc/th7356",
            "host": "uc2n368.localdomain",
            "ip": "10.0.1.112",
            "trackers": [],
            "action": {
                "stored_data": {
                    "_message": "runtime error during task",
                    "_task": {
                        "_fw_name": "PyTask",
                        "func": "parallel_data_jupyter_EMBEDDED_dask.main",
                        "kwargs": {
                            "pool": "local_threads",
                            "threads_number": "10"
                        }
                    },
                    "_exception": {
                        "_stacktrace": "Traceback (most recent call last):\n  File \"/home/kit/scc/th7356/.local/lib/python3.8/site-packages/fireworks/core/rocket.py\", line 261, in run\n    m_action = t.run_task(my_spec)\n  File \"/home/kit/scc/th7356/.local/lib/python3.8/site-packages/fireworks/user_objects/firetasks/script_task.py\", line 170, in run_task\n    mod = __import__(modname, globals(), locals(), [str(funcname)], 0)\nModuleNotFoundError: No module named 'parallel_data_jupyter_EMBEDDED_dask'\n",
                        "_details": null
                    }
                },
                "exit": true,
                "update_spec": {},
                "mod_spec": [],
                "additions": [],
                "detours": [],
                "defuse_children": false,
                "defuse_workflow": false,
                "propagate": false
            },
            "state": "FIZZLED",
            "state_history": [
                {
                    "state": "RUNNING",
                    "created_on": "2023-02-21T09:13:57.277776",
                    "updated_on": "2023-02-21T09:13:57.313102",
                    "checkpoint": {
                        "_task_n": 0,
                        "_all_stored_data": {},
                        "_all_update_spec": {},
                        "_all_mod_spec": []
                    }
                },
                {
                    "state": "FIZZLED",
                    "created_on": "2023-02-21T09:13:57.315650",
                    "checkpoint": {
                        "_task_n": 0,
                        "_all_stored_data": {},
                        "_all_update_spec": {},
                        "_all_mod_spec": []
                    }
                }
            ],
            "launch_id": 7964
        },
        {
            "fworker": {
                "name": null,
                "category": [
                    "interactive"
                ],
                "query": "{}",
                "env": {}
            },
            "fw_id": 65557,
            "launch_dir": "/pfs/data5/home/kit/scc/th7356",
            "host": "uc2n368.localdomain",
            "ip": "10.0.1.112",
            "trackers": [],
            "action": {
                "stored_data": {
                    "_message": "runtime error during task",
                    "_task": {
                        "_fw_name": "PyTask",
                        "func": "parallel_data_jupyter_EMBEDDED_dask.main",
                        "kwargs": {
                            "pool": "local_threads",
                            "threads_number": "10"
                        }
                    },
                    "_exception": {
                        "_stacktrace": "Traceback (most recent call last):\n  File \"/opt/bwhpc/common/jupyter/tensorflow/2023-01-02/lib/python3.8/site-packages/numpy/core/__init__.py\", line 23, in <module>\n    from . import multiarray\n  File \"/opt/bwhpc/common/jupyter/tensorflow/2023-01-02/lib/python3.8/site-packages/numpy/core/multiarray.py\", line 10, in <module>\n    from . import overrides\n  File \"/opt/bwhpc/common/jupyter/tensorflow/2023-01-02/lib/python3.8/site-packages/numpy/core/overrides.py\", line 6, in <module>\n    from numpy.core._multiarray_umath import (\nModuleNotFoundError: No module named 'numpy.core._multiarray_umath'\n\nDuring handling of the above exception, another exception occurred:\n\nTraceback (most recent call last):\n  File \"/home/kit/scc/th7356/.local/lib/python3.8/site-packages/fireworks/core/rocket.py\", line 261, in run\n    m_action = t.run_task(my_spec)\n  File \"/home/kit/scc/th7356/.local/lib/python3.8/site-packages/fireworks/user_objects/firetasks/script_task.py\", line 170, in run_task\n    mod = __import__(modname, globals(), locals(), [str(funcname)], 0)\n  File \"/pfs/data5/home/kit/scc/th7356/wfgenes/intro_examples/foreach_sample/wfGenes_output/parallel_data_jupyter_EMBEDDED/Dask/parallel_data_jupyter_EMBEDDED_dask.py\", line 2, in <module>\n    import numpy as np\n  File \"/opt/bwhpc/common/jupyter/tensorflow/2023-01-02/lib/python3.8/site-packages/numpy/__init__.py\", line 141, in <module>\n    from . import core\n  File \"/opt/bwhpc/common/jupyter/tensorflow/2023-01-02/lib/python3.8/site-packages/numpy/core/__init__.py\", line 49, in <module>\n    raise ImportError(msg)\nImportError: \n\nIMPORTANT: PLEASE READ THIS FOR ADVICE ON HOW TO SOLVE THIS ISSUE!\n\nImporting the numpy C-extensions failed. This error can happen for\nmany reasons, often due to issues with your setup or how NumPy was\ninstalled.\n\nWe have compiled some common reasons and troubleshooting tips at:\n\n    https://numpy.org/devdocs/user/troubleshooting-importerror.html\n\nPlease note and check the following:\n\n  * The Python version is: Python3.7 from \"/home/kit/scc/th7356/software/anaconda3/bin/python\"\n  * The NumPy version is: \"1.24.1\"\n\nand make sure that they are the versions you expect.\nPlease carefully study the documentation linked above for further help.\n\nOriginal error was: No module named 'numpy.core._multiarray_umath'\n\n",
                        "_details": null
                    }
                },
                "exit": true,
                "update_spec": {},
                "mod_spec": [],
                "additions": [],
                "detours": [],
                "defuse_children": false,
                "defuse_workflow": false,
                "propagate": false
            },
            "state": "FIZZLED",
            "state_history": [
                {
                    "state": "RUNNING",
                    "created_on": "2023-02-21T09:14:47.979918",
                    "updated_on": "2023-02-21T09:14:48.384259",
                    "checkpoint": {
                        "_task_n": 0,
                        "_all_stored_data": {},
                        "_all_update_spec": {},
                        "_all_mod_spec": []
                    }
                },
                {
                    "state": "FIZZLED",
                    "created_on": "2023-02-21T09:14:48.386516",
                    "checkpoint": {
                        "_task_n": 0,
                        "_all_stored_data": {},
                        "_all_update_spec": {},
                        "_all_mod_spec": []
                    }
                }
            ],
            "launch_id": 7965
        },
        {
            "fworker": {
                "name": null,
                "category": [
                    "interactive"
                ],
                "query": "{}",
                "env": {}
            },
            "fw_id": 65557,
            "launch_dir": "/pfs/data5/home/kit/scc/th7356",
            "host": "uc2n368.localdomain",
            "ip": "10.0.1.112",
            "trackers": [],
            "action": {
                "stored_data": {
                    "_message": "runtime error during task",
                    "_task": {
                        "_fw_name": "PyTask",
                        "func": "parallel_data_jupyter_EMBEDDED_dask.main",
                        "kwargs": {
                            "pool": "local_threads",
                            "threads_number": "10"
                        }
                    },
                    "_exception": {
                        "_stacktrace": "Traceback (most recent call last):\n  File \"/opt/bwhpc/common/jupyter/tensorflow/2023-01-02/lib/python3.8/site-packages/numpy/core/__init__.py\", line 23, in <module>\n    from . import multiarray\n  File \"/opt/bwhpc/common/jupyter/tensorflow/2023-01-02/lib/python3.8/site-packages/numpy/core/multiarray.py\", line 10, in <module>\n    from . import overrides\n  File \"/opt/bwhpc/common/jupyter/tensorflow/2023-01-02/lib/python3.8/site-packages/numpy/core/overrides.py\", line 6, in <module>\n    from numpy.core._multiarray_umath import (\nModuleNotFoundError: No module named 'numpy.core._multiarray_umath'\n\nDuring handling of the above exception, another exception occurred:\n\nTraceback (most recent call last):\n  File \"/home/kit/scc/th7356/.local/lib/python3.8/site-packages/fireworks/core/rocket.py\", line 261, in run\n    m_action = t.run_task(my_spec)\n  File \"/home/kit/scc/th7356/.local/lib/python3.8/site-packages/fireworks/user_objects/firetasks/script_task.py\", line 170, in run_task\n    mod = __import__(modname, globals(), locals(), [str(funcname)], 0)\n  File \"/pfs/data5/home/kit/scc/th7356/wfgenes/intro_examples/foreach_sample/wfGenes_output/parallel_data_jupyter_EMBEDDED/Dask/parallel_data_jupyter_EMBEDDED_dask.py\", line 2, in <module>\n    import numpy as np\n  File \"/opt/bwhpc/common/jupyter/tensorflow/2023-01-02/lib/python3.8/site-packages/numpy/__init__.py\", line 141, in <module>\n    from . import core\n  File \"/opt/bwhpc/common/jupyter/tensorflow/2023-01-02/lib/python3.8/site-packages/numpy/core/__init__.py\", line 49, in <module>\n    raise ImportError(msg)\nImportError: \n\nIMPORTANT: PLEASE READ THIS FOR ADVICE ON HOW TO SOLVE THIS ISSUE!\n\nImporting the numpy C-extensions failed. This error can happen for\nmany reasons, often due to issues with your setup or how NumPy was\ninstalled.\n\nWe have compiled some common reasons and troubleshooting tips at:\n\n    https://numpy.org/devdocs/user/troubleshooting-importerror.html\n\nPlease note and check the following:\n\n  * The Python version is: Python3.10 from \"/home/kit/scc/th7356/software/anaconda3/envs/wfgenes/bin/python\"\n  * The NumPy version is: \"1.24.1\"\n\nand make sure that they are the versions you expect.\nPlease carefully study the documentation linked above for further help.\n\nOriginal error was: No module named 'numpy.core._multiarray_umath'\n\n",
                        "_details": null
                    }
                },
                "exit": true,
                "update_spec": {},
                "mod_spec": [],
                "additions": [],
                "detours": [],
                "defuse_children": false,
                "defuse_workflow": false,
                "propagate": false
            },
            "state": "FIZZLED",
            "state_history": [
                {
                    "state": "RUNNING",
                    "created_on": "2023-02-21T09:15:06.851708",
                    "updated_on": "2023-02-21T09:15:06.955356",
                    "checkpoint": {
                        "_task_n": 0,
                        "_all_stored_data": {},
                        "_all_update_spec": {},
                        "_all_mod_spec": []
                    }
                },
                {
                    "state": "FIZZLED",
                    "created_on": "2023-02-21T09:15:06.958248",
                    "checkpoint": {
                        "_task_n": 0,
                        "_all_stored_data": {},
                        "_all_update_spec": {},
                        "_all_mod_spec": []
                    }
                }
            ],
            "launch_id": 7966
        },
        {
            "fworker": {
                "name": null,
                "category": [
                    "interactive"
                ],
                "query": "{}",
                "env": {}
            },
            "fw_id": 65557,
            "launch_dir": "/pfs/data5/home/kit/scc/th7356",
            "host": "uc2n368.localdomain",
            "ip": "10.0.1.112",
            "trackers": [],
            "action": {
                "stored_data": {
                    "_message": "runtime error during task",
                    "_task": {
                        "_fw_name": "PyTask",
                        "func": "parallel_data_jupyter_EMBEDDED_dask.main",
                        "kwargs": {
                            "pool": "local_threads",
                            "threads_number": "10"
                        }
                    },
                    "_exception": {
                        "_stacktrace": "Traceback (most recent call last):\n  File \"/opt/bwhpc/common/jupyter/tensorflow/2023-01-02/lib/python3.8/site-packages/numpy/core/__init__.py\", line 23, in <module>\n    from . import multiarray\n  File \"/opt/bwhpc/common/jupyter/tensorflow/2023-01-02/lib/python3.8/site-packages/numpy/core/multiarray.py\", line 10, in <module>\n    from . import overrides\n  File \"/opt/bwhpc/common/jupyter/tensorflow/2023-01-02/lib/python3.8/site-packages/numpy/core/overrides.py\", line 6, in <module>\n    from numpy.core._multiarray_umath import (\nModuleNotFoundError: No module named 'numpy.core._multiarray_umath'\n\nDuring handling of the above exception, another exception occurred:\n\nTraceback (most recent call last):\n  File \"/home/kit/scc/th7356/.local/lib/python3.8/site-packages/fireworks/core/rocket.py\", line 261, in run\n    m_action = t.run_task(my_spec)\n  File \"/home/kit/scc/th7356/.local/lib/python3.8/site-packages/fireworks/user_objects/firetasks/script_task.py\", line 170, in run_task\n    mod = __import__(modname, globals(), locals(), [str(funcname)], 0)\n  File \"/pfs/data5/home/kit/scc/th7356/wfgenes/intro_examples/foreach_sample/wfGenes_output/parallel_data_jupyter_EMBEDDED/Dask/parallel_data_jupyter_EMBEDDED_dask.py\", line 2, in <module>\n    import numpy as np\n  File \"/opt/bwhpc/common/jupyter/tensorflow/2023-01-02/lib/python3.8/site-packages/numpy/__init__.py\", line 141, in <module>\n    from . import core\n  File \"/opt/bwhpc/common/jupyter/tensorflow/2023-01-02/lib/python3.8/site-packages/numpy/core/__init__.py\", line 49, in <module>\n    raise ImportError(msg)\nImportError: \n\nIMPORTANT: PLEASE READ THIS FOR ADVICE ON HOW TO SOLVE THIS ISSUE!\n\nImporting the numpy C-extensions failed. This error can happen for\nmany reasons, often due to issues with your setup or how NumPy was\ninstalled.\n\nWe have compiled some common reasons and troubleshooting tips at:\n\n    https://numpy.org/devdocs/user/troubleshooting-importerror.html\n\nPlease note and check the following:\n\n  * The Python version is: Python3.10 from \"/home/kit/scc/th7356/software/anaconda3/envs/wfgenes/bin/python\"\n  * The NumPy version is: \"1.24.1\"\n\nand make sure that they are the versions you expect.\nPlease carefully study the documentation linked above for further help.\n\nOriginal error was: No module named 'numpy.core._multiarray_umath'\n\n",
                        "_details": null
                    }
                },
                "exit": true,
                "update_spec": {},
                "mod_spec": [],
                "additions": [],
                "detours": [],
                "defuse_children": false,
                "defuse_workflow": false,
                "propagate": false
            },
            "state": "FIZZLED",
            "state_history": [
                {
                    "state": "RUNNING",
                    "created_on": "2023-02-21T09:16:32.297712",
                    "updated_on": "2023-02-21T09:16:32.385110",
                    "checkpoint": {
                        "_task_n": 0,
                        "_all_stored_data": {},
                        "_all_update_spec": {},
                        "_all_mod_spec": []
                    }
                },
                {
                    "state": "FIZZLED",
                    "created_on": "2023-02-21T09:16:32.388006",
                    "checkpoint": {
                        "_task_n": 0,
                        "_all_stored_data": {},
                        "_all_update_spec": {},
                        "_all_mod_spec": []
                    }
                }
            ],
            "launch_id": 7967
        },
        {
            "fworker": {
                "name": null,
                "category": [
                    "interactive"
                ],
                "query": "{}",
                "env": {}
            },
            "fw_id": 65557,
            "launch_dir": "/pfs/data5/home/kit/scc/th7356",
            "host": "uc2n368.localdomain",
            "ip": "10.0.1.112",
            "trackers": [],
            "action": {
                "stored_data": {
                    "_message": "runtime error during task",
                    "_task": {
                        "_fw_name": "PyTask",
                        "func": "parallel_data_jupyter_EMBEDDED_dask.main",
                        "kwargs": {
                            "pool": "local_threads",
                            "threads_number": "10"
                        }
                    },
                    "_exception": {
                        "_stacktrace": "Traceback (most recent call last):\n  File \"/home/kit/scc/th7356/software/anaconda3/envs/wfgenes/lib/python3.10/site-packages/fireworks/core/rocket.py\", line 261, in run\n    m_action = t.run_task(my_spec)\n  File \"/home/kit/scc/th7356/software/anaconda3/envs/wfgenes/lib/python3.10/site-packages/fireworks/user_objects/firetasks/script_task.py\", line 170, in run_task\n    mod = __import__(modname, globals(), locals(), [str(funcname)], 0)\n  File \"/pfs/data5/home/kit/scc/th7356/wfgenes/intro_examples/foreach_sample/wfGenes_output/parallel_data_jupyter_EMBEDDED/Dask/parallel_data_jupyter_EMBEDDED_dask.py\", line 15, in <module>\n    from myfunctions import plus_minus\nModuleNotFoundError: No module named 'myfunctions'\n",
                        "_details": null
                    }
                },
                "exit": true,
                "update_spec": {},
                "mod_spec": [],
                "additions": [],
                "detours": [],
                "defuse_children": false,
                "defuse_workflow": false,
                "propagate": false
            },
            "state": "FIZZLED",
            "state_history": [
                {
                    "state": "RUNNING",
                    "created_on": "2023-02-21T09:19:14.693317",
                    "updated_on": "2023-02-21T09:19:22.753069",
                    "checkpoint": {
                        "_task_n": 0,
                        "_all_stored_data": {},
                        "_all_update_spec": {},
                        "_all_mod_spec": []
                    }
                },
                {
                    "state": "FIZZLED",
                    "created_on": "2023-02-21T09:19:22.754798",
                    "checkpoint": {
                        "_task_n": 0,
                        "_all_stored_data": {},
                        "_all_update_spec": {},
                        "_all_mod_spec": []
                    }
                }
            ],
            "launch_id": 7968
        },
        {
            "fworker": {
                "name": null,
                "category": [
                    "interactive"
                ],
                "query": "{}",
                "env": {}
            },
            "fw_id": 65557,
            "launch_dir": "/pfs/data5/home/kit/scc/th7356",
            "host": "uc2n368.localdomain",
            "ip": "10.0.1.112",
            "trackers": [],
            "action": {
                "stored_data": {
                    "_message": "runtime error during task",
                    "_task": {
                        "_fw_name": "PyTask",
                        "func": "parallel_data_jupyter_EMBEDDED_dask.main",
                        "kwargs": {
                            "pool": "local_threads",
                            "threads_number": "10"
                        }
                    },
                    "_exception": {
                        "_stacktrace": "Traceback (most recent call last):\n  File \"/home/kit/scc/th7356/software/anaconda3/envs/wfgenes/lib/python3.10/site-packages/fireworks/core/rocket.py\", line 261, in run\n    m_action = t.run_task(my_spec)\n  File \"/home/kit/scc/th7356/software/anaconda3/envs/wfgenes/lib/python3.10/site-packages/fireworks/user_objects/firetasks/script_task.py\", line 170, in run_task\n    mod = __import__(modname, globals(), locals(), [str(funcname)], 0)\n  File \"/pfs/data5/home/kit/scc/th7356/wfgenes/intro_examples/foreach_sample/wfGenes_output/parallel_data_jupyter_EMBEDDED/Dask/parallel_data_jupyter_EMBEDDED_dask.py\", line 15, in <module>\n    from myfunctions import plus_minus\nModuleNotFoundError: No module named 'myfunctions'\n",
                        "_details": null
                    }
                },
                "exit": true,
                "update_spec": {},
                "mod_spec": [],
                "additions": [],
                "detours": [],
                "defuse_children": false,
                "defuse_workflow": false,
                "propagate": false
            },
            "state": "FIZZLED",
            "state_history": [
                {
                    "state": "RUNNING",
                    "created_on": "2023-02-21T09:20:50.585535",
                    "updated_on": "2023-02-21T09:20:52.976040",
                    "checkpoint": {
                        "_task_n": 0,
                        "_all_stored_data": {},
                        "_all_update_spec": {},
                        "_all_mod_spec": []
                    }
                },
                {
                    "state": "FIZZLED",
                    "created_on": "2023-02-21T09:20:52.978521",
                    "checkpoint": {
                        "_task_n": 0,
                        "_all_stored_data": {},
                        "_all_update_spec": {},
                        "_all_mod_spec": []
                    }
                }
            ],
            "launch_id": 7969
        },
        {
            "fworker": {
                "name": null,
                "category": [
                    "interactive"
                ],
                "query": "{}",
                "env": {}
            },
            "fw_id": 65557,
            "launch_dir": "/pfs/data5/home/kit/scc/th7356",
            "host": "uc2n368.localdomain",
            "ip": "10.0.1.112",
            "trackers": [],
            "action": {
                "stored_data": {
                    "_message": "runtime error during task",
                    "_task": {
                        "_fw_name": "PyTask",
                        "func": "parallel_data_jupyter_EMBEDDED_dask.main",
                        "kwargs": {
                            "pool": "local_threads",
                            "threads_number": "10"
                        }
                    },
                    "_exception": {
                        "_stacktrace": "Traceback (most recent call last):\n  File \"/home/kit/scc/th7356/software/anaconda3/envs/wfgenes/lib/python3.10/site-packages/fireworks/core/rocket.py\", line 261, in run\n    m_action = t.run_task(my_spec)\n  File \"/home/kit/scc/th7356/software/anaconda3/envs/wfgenes/lib/python3.10/site-packages/fireworks/user_objects/firetasks/script_task.py\", line 170, in run_task\n    mod = __import__(modname, globals(), locals(), [str(funcname)], 0)\n  File \"/pfs/data5/home/kit/scc/th7356/wfgenes/intro_examples/foreach_sample/wfGenes_output/parallel_data_jupyter_EMBEDDED/Dask/parallel_data_jupyter_EMBEDDED_dask.py\", line 15, in <module>\n    from myfunctions import plus_minus\nModuleNotFoundError: No module named 'myfunctions'\n",
                        "_details": null
                    }
                },
                "exit": true,
                "update_spec": {},
                "mod_spec": [],
                "additions": [],
                "detours": [],
                "defuse_children": false,
                "defuse_workflow": false,
                "propagate": false
            },
            "state": "FIZZLED",
            "state_history": [
                {
                    "state": "RUNNING",
                    "created_on": "2023-02-21T09:21:30.654228",
                    "updated_on": "2023-02-21T09:21:30.988746",
                    "checkpoint": {
                        "_task_n": 0,
                        "_all_stored_data": {},
                        "_all_update_spec": {},
                        "_all_mod_spec": []
                    }
                },
                {
                    "state": "FIZZLED",
                    "created_on": "2023-02-21T09:21:30.991490",
                    "checkpoint": {
                        "_task_n": 0,
                        "_all_stored_data": {},
                        "_all_update_spec": {},
                        "_all_mod_spec": []
                    }
                }
            ],
            "launch_id": 7970
        },
        {
            "fworker": {
                "name": null,
                "category": [
                    "interactive"
                ],
                "query": "{}",
                "env": {}
            },
            "fw_id": 65557,
            "launch_dir": "/pfs/data5/home/kit/scc/th7356",
            "host": "uc2n368.localdomain",
            "ip": "10.0.1.112",
            "trackers": [],
            "action": {
                "stored_data": {
                    "_message": "runtime error during task",
                    "_task": {
                        "_fw_name": "PyTask",
                        "func": "parallel_data_jupyter_EMBEDDED_dask.main",
                        "kwargs": {
                            "pool": "local_threads",
                            "threads_number": "10"
                        }
                    },
                    "_exception": {
                        "_stacktrace": "Traceback (most recent call last):\n  File \"/home/kit/scc/th7356/software/anaconda3/envs/wfgenes/lib/python3.10/site-packages/fireworks/core/rocket.py\", line 261, in run\n    m_action = t.run_task(my_spec)\n  File \"/home/kit/scc/th7356/software/anaconda3/envs/wfgenes/lib/python3.10/site-packages/fireworks/user_objects/firetasks/script_task.py\", line 170, in run_task\n    mod = __import__(modname, globals(), locals(), [str(funcname)], 0)\n  File \"/pfs/data5/home/kit/scc/th7356/wfgenes/intro_examples/foreach_sample/wfGenes_output/parallel_data_jupyter_EMBEDDED/Dask/parallel_data_jupyter_EMBEDDED_dask.py\", line 15, in <module>\n    from myfunctions import plus_minus\nModuleNotFoundError: No module named 'myfunctions'\n",
                        "_details": null
                    }
                },
                "exit": true,
                "update_spec": {},
                "mod_spec": [],
                "additions": [],
                "detours": [],
                "defuse_children": false,
                "defuse_workflow": false,
                "propagate": false
            },
            "state": "FIZZLED",
            "state_history": [
                {
                    "state": "RUNNING",
                    "created_on": "2023-02-21T09:24:38.201561",
                    "updated_on": "2023-02-21T09:24:44.959168",
                    "checkpoint": {
                        "_task_n": 0,
                        "_all_stored_data": {},
                        "_all_update_spec": {},
                        "_all_mod_spec": []
                    }
                },
                {
                    "state": "FIZZLED",
                    "created_on": "2023-02-21T09:24:44.961002",
                    "checkpoint": {
                        "_task_n": 0,
                        "_all_stored_data": {},
                        "_all_update_spec": {},
                        "_all_mod_spec": []
                    }
                }
            ],
            "launch_id": 7971
        },
        {
            "fworker": {
                "name": null,
                "category": [
                    "interactive",
                    "remote"
                ],
                "query": "{}",
                "env": {}
            },
            "fw_id": 65557,
            "launch_dir": "/home/mehdi",
            "host": "SCC-th7356-01",
            "ip": "127.0.1.1",
            "trackers": [],
            "action": {
                "stored_data": {
                    "_message": "runtime error during task",
                    "_task": {
                        "_fw_name": "PyTask",
                        "func": "parallel_data_jupyter_EMBEDDED_dask.main",
                        "kwargs": {
                            "pool": "local_threads",
                            "threads_number": "10"
                        }
                    },
                    "_exception": {
                        "_stacktrace": "Traceback (most recent call last):\n  File \"/home/mehdi/tools/anaconda3/envs/wfgenes/lib/python3.10/site-packages/fireworks/core/rocket.py\", line 261, in run\n    m_action = t.run_task(my_spec)\n  File \"/home/mehdi/tools/anaconda3/envs/wfgenes/lib/python3.10/site-packages/fireworks/user_objects/firetasks/script_task.py\", line 170, in run_task\n    mod = __import__(modname, globals(), locals(), [str(funcname)], 0)\nModuleNotFoundError: No module named 'parallel_data_jupyter_EMBEDDED_dask'\n",
                        "_details": null
                    }
                },
                "exit": true,
                "update_spec": {},
                "mod_spec": [],
                "additions": [],
                "detours": [],
                "defuse_children": false,
                "defuse_workflow": false,
                "propagate": false
            },
            "state": "FIZZLED",
            "state_history": [
                {
                    "state": "RUNNING",
                    "created_on": "2023-02-21T09:33:26.089946",
                    "updated_on": "2023-02-21T09:33:26.170982",
                    "checkpoint": {
                        "_task_n": 0,
                        "_all_stored_data": {},
                        "_all_update_spec": {},
                        "_all_mod_spec": []
                    }
                },
                {
                    "state": "FIZZLED",
                    "created_on": "2023-02-21T09:33:26.185668",
                    "checkpoint": {
                        "_task_n": 0,
                        "_all_stored_data": {},
                        "_all_update_spec": {},
                        "_all_mod_spec": []
                    }
                }
            ],
            "launch_id": 7972
        },
        {
            "fworker": {
                "name": null,
                "category": [
                    "interactive",
                    "remote"
                ],
                "query": "{}",
                "env": {}
            },
            "fw_id": 65557,
            "launch_dir": "/home/mehdi/wfgenes",
            "host": "SCC-th7356-01",
            "ip": "127.0.1.1",
            "trackers": [],
            "action": {
                "stored_data": {
                    "_message": "runtime error during task",
                    "_task": {
                        "_fw_name": "PyTask",
                        "func": "parallel_data_jupyter_EMBEDDED_dask.main",
                        "kwargs": {
                            "pool": "local_threads",
                            "threads_number": "10"
                        }
                    },
                    "_exception": {
                        "_stacktrace": "Traceback (most recent call last):\n  File \"/home/mehdi/tools/anaconda3/envs/wfgenes/lib/python3.10/site-packages/fireworks/core/rocket.py\", line 261, in run\n    m_action = t.run_task(my_spec)\n  File \"/home/mehdi/tools/anaconda3/envs/wfgenes/lib/python3.10/site-packages/fireworks/user_objects/firetasks/script_task.py\", line 170, in run_task\n    mod = __import__(modname, globals(), locals(), [str(funcname)], 0)\nModuleNotFoundError: No module named 'parallel_data_jupyter_EMBEDDED_dask'\n",
                        "_details": null
                    }
                },
                "exit": true,
                "update_spec": {},
                "mod_spec": [],
                "additions": [],
                "detours": [],
                "defuse_children": false,
                "defuse_workflow": false,
                "propagate": false
            },
            "state": "FIZZLED",
            "state_history": [
                {
                    "state": "RUNNING",
                    "created_on": "2023-02-21T09:42:23.836262",
                    "updated_on": "2023-02-21T09:42:23.906737",
                    "checkpoint": {
                        "_task_n": 0,
                        "_all_stored_data": {},
                        "_all_update_spec": {},
                        "_all_mod_spec": []
                    }
                },
                {
                    "state": "FIZZLED",
                    "created_on": "2023-02-21T09:42:23.911501",
                    "checkpoint": {
                        "_task_n": 0,
                        "_all_stored_data": {},
                        "_all_update_spec": {},
                        "_all_mod_spec": []
                    }
                }
            ],
            "launch_id": 7973
        },
        {
            "fworker": {
                "name": null,
                "category": [
                    "interactive",
                    "remote"
                ],
                "query": "{}",
                "env": {}
            },
            "fw_id": 65557,
            "launch_dir": "/home/mehdi/wfgenes",
            "host": "SCC-th7356-01",
            "ip": "127.0.1.1",
            "trackers": [],
            "action": {
                "stored_data": {
                    "_message": "runtime error during task",
                    "_task": {
                        "_fw_name": "PyTask",
                        "func": "parallel_data_jupyter_EMBEDDED_dask.main",
                        "kwargs": {
                            "pool": "local_threads",
                            "threads_number": "10"
                        }
                    },
                    "_exception": {
                        "_stacktrace": "Traceback (most recent call last):\n  File \"/home/mehdi/tools/anaconda3/envs/wfgenes/lib/python3.10/site-packages/fireworks/core/rocket.py\", line 261, in run\n    m_action = t.run_task(my_spec)\n  File \"/home/mehdi/tools/anaconda3/envs/wfgenes/lib/python3.10/site-packages/fireworks/user_objects/firetasks/script_task.py\", line 170, in run_task\n    mod = __import__(modname, globals(), locals(), [str(funcname)], 0)\nModuleNotFoundError: No module named 'parallel_data_jupyter_EMBEDDED_dask'\n",
                        "_details": null
                    }
                },
                "exit": true,
                "update_spec": {},
                "mod_spec": [],
                "additions": [],
                "detours": [],
                "defuse_children": false,
                "defuse_workflow": false,
                "propagate": false
            },
            "state": "FIZZLED",
            "state_history": [
                {
                    "state": "RUNNING",
                    "created_on": "2023-02-21T09:43:31.793364",
                    "updated_on": "2023-02-21T09:43:31.865854",
                    "checkpoint": {
                        "_task_n": 0,
                        "_all_stored_data": {},
                        "_all_update_spec": {},
                        "_all_mod_spec": []
                    }
                },
                {
                    "state": "FIZZLED",
                    "created_on": "2023-02-21T09:43:31.870498",
                    "checkpoint": {
                        "_task_n": 0,
                        "_all_stored_data": {},
                        "_all_update_spec": {},
                        "_all_mod_spec": []
                    }
                }
            ],
            "launch_id": 7974
        },
        {
            "fworker": {
                "name": null,
                "category": [
                    "interactive",
                    "remote"
                ],
                "query": "{}",
                "env": {}
            },
            "fw_id": 65557,
            "launch_dir": "/home/mehdi/wfgenes",
            "host": "SCC-th7356-01",
            "ip": "127.0.1.1",
            "trackers": [],
            "action": {
                "stored_data": {
                    "_message": "runtime error during task",
                    "_task": {
                        "_fw_name": "PyTask",
                        "func": "parallel_data_jupyter_EMBEDDED_dask.main",
                        "kwargs": {
                            "pool": "local_threads",
                            "threads_number": "10"
                        }
                    },
                    "_exception": {
                        "_stacktrace": "Traceback (most recent call last):\n  File \"/home/mehdi/tools/anaconda3/envs/wfgenes/lib/python3.10/site-packages/fireworks/core/rocket.py\", line 261, in run\n    m_action = t.run_task(my_spec)\n  File \"/home/mehdi/tools/anaconda3/envs/wfgenes/lib/python3.10/site-packages/fireworks/user_objects/firetasks/script_task.py\", line 170, in run_task\n    mod = __import__(modname, globals(), locals(), [str(funcname)], 0)\n  File \"/home/mehdi/wfgenes/intro_examples/foreach_sample/wfGenes_output/parallel_data_jupyter_EMBEDDED/Dask/parallel_data_jupyter_EMBEDDED_dask.py\", line 15, in <module>\n    from myfunctions import plus_minus\nModuleNotFoundError: No module named 'myfunctions'\n",
                        "_details": null
                    }
                },
                "exit": true,
                "update_spec": {},
                "mod_spec": [],
                "additions": [],
                "detours": [],
                "defuse_children": false,
                "defuse_workflow": false,
                "propagate": false
            },
            "state": "FIZZLED",
            "state_history": [
                {
                    "state": "RUNNING",
                    "created_on": "2023-02-21T09:43:53.720145",
                    "updated_on": "2023-02-21T09:43:54.569052",
                    "checkpoint": {
                        "_task_n": 0,
                        "_all_stored_data": {},
                        "_all_update_spec": {},
                        "_all_mod_spec": []
                    }
                },
                {
                    "state": "FIZZLED",
                    "created_on": "2023-02-21T09:43:54.573815",
                    "checkpoint": {
                        "_task_n": 0,
                        "_all_stored_data": {},
                        "_all_update_spec": {},
                        "_all_mod_spec": []
                    }
                }
            ],
            "launch_id": 7975
        },
        {
            "fworker": {
                "name": null,
                "category": [
                    "interactive",
                    "remote"
                ],
                "query": "{}",
                "env": {}
            },
            "fw_id": 65557,
            "launch_dir": "/home/mehdi/wfgenes",
            "host": "SCC-th7356-01",
            "ip": "127.0.1.1",
            "trackers": [],
            "action": {
                "stored_data": {
                    "_message": "runtime error during task",
                    "_task": {
                        "_fw_name": "PyTask",
                        "func": "parallel_data_jupyter_EMBEDDED_dask.main",
                        "kwargs": {
                            "pool": "local_threads",
                            "threads_number": "10"
                        }
                    },
                    "_exception": {
                        "_stacktrace": "Traceback (most recent call last):\n  File \"/home/mehdi/tools/anaconda3/envs/wfgenes/lib/python3.10/site-packages/fireworks/core/rocket.py\", line 261, in run\n    m_action = t.run_task(my_spec)\n  File \"/home/mehdi/tools/anaconda3/envs/wfgenes/lib/python3.10/site-packages/fireworks/user_objects/firetasks/script_task.py\", line 170, in run_task\n    mod = __import__(modname, globals(), locals(), [str(funcname)], 0)\n  File \"/home/mehdi/wfgenes/intro_examples/foreach_sample/wfGenes_output/parallel_data_jupyter_EMBEDDED/Dask/parallel_data_jupyter_EMBEDDED_dask.py\", line 15, in <module>\n    from myfunctions import plus_minus\nModuleNotFoundError: No module named 'myfunctions'\n",
                        "_details": null
                    }
                },
                "exit": true,
                "update_spec": {},
                "mod_spec": [],
                "additions": [],
                "detours": [],
                "defuse_children": false,
                "defuse_workflow": false,
                "propagate": false
            },
            "state": "FIZZLED",
            "state_history": [
                {
                    "state": "RUNNING",
                    "created_on": "2023-02-21T09:45:10.449780",
                    "updated_on": "2023-02-21T09:45:11.112419",
                    "checkpoint": {
                        "_task_n": 0,
                        "_all_stored_data": {},
                        "_all_update_spec": {},
                        "_all_mod_spec": []
                    }
                },
                {
                    "state": "FIZZLED",
                    "created_on": "2023-02-21T09:45:11.117444",
                    "checkpoint": {
                        "_task_n": 0,
                        "_all_stored_data": {},
                        "_all_update_spec": {},
                        "_all_mod_spec": []
                    }
                }
            ],
            "launch_id": 7976
        }
    ],
    "state": "RUNNING",
    "name": "plus_minus"
}